Assessment2
…
The pair that has the highest correlation (0.411) is Cookies and
Brownies. The lowest correlation (-0.164) is the pair of Pumpkin and
Macaroni and cheese.

#install.packages('widyr')

library(widyr)

## Warning: package 'widyr' was built under R version 4.1.3

thanksgiving_meal_new %>%
  pairwise_cor(value, id, sort = TRUE)

## # A tibble: 992 x 3
##    item1               item2               correlation
##    <chr>               <chr>                     <dbl>
##  1 Cookies             Brownies                  0.411
##  2 Brownies            Cookies                   0.411
##  3 Sweet Potato        Macaroni and cheese       0.365
##  4 Macaroni and cheese Sweet Potato              0.365
##  5 Rolls/biscuits      Mashed potatoes           0.341
##  6 Mashed potatoes     Rolls/biscuits            0.341
##  7 Peach cobbler       Sweet Potato              0.339
##  8 Sweet Potato        Peach cobbler             0.339
##  9 Pumpkin             Mashed potatoes           0.290
## 10 Mashed potatoes     Pumpkin                   0.290
## # ... with 982 more rows
…
